[gd_scene load_steps=4 format=2]

[ext_resource path="res://Objects/Apple/Apple.png" type="Texture" id=1]
[ext_resource path="res://Objects/Apple/Apple.cs" type="Script" id=2]

[sub_resource type="RectangleShape2D" id=1]
extents = Vector2( 3, 3.5 )

[node name="Apple" type="Area2D"]
script = ExtResource( 2 )

[node name="Sprite" type="Sprite" parent="."]
texture = ExtResource( 1 )

[node name="CollisionShape2D" type="CollisionShape2D" parent="."]
position = Vector2( 0, 0.5 )
shape = SubResource( 1 )
[connection signal="body_entered" from="." to="." method="OnAppleBodyEntered"]
